<?xml version="1.0" encoding="UTF-8" standalone="no"?>
<!-- Created with Inkscape (http://www.inkscape.org/) -->

<svg
   xmlns:dc="http://purl.org/dc/elements/1.1/"
   xmlns:cc="http://creativecommons.org/ns#"
   xmlns:rdf="http://www.w3.org/1999/02/22-rdf-syntax-ns#"
   xmlns:svg="http://www.w3.org/2000/svg"
   xmlns="http://www.w3.org/2000/svg"
   xmlns:sodipodi="http://sodipodi.sourceforge.net/DTD/sodipodi-0.dtd"
   xmlns:inkscape="http://www.inkscape.org/namespaces/inkscape"
   width="360"
   height="360"
   viewBox="0 0 360 360.00001"
   id="svg9933"
   version="1.1"
   inkscape:version="0.91 r13725"
   sodipodi:docname="confused1.svg">
  <defs
     id="defs9935" />
  <sodipodi:namedview
     id="base"
     pagecolor="#ffffff"
     bordercolor="#666666"
     borderopacity="1.0"
     inkscape:pageopacity="0.0"
     inkscape:pageshadow="2"
     inkscape:zoom="0.35"
     inkscape:cx="-428.57143"
     inkscape:cy="520"
     inkscape:document-units="px"
     inkscape:current-layer="layer1"
     showgrid="false"
     inkscape:window-width="1366"
     inkscape:window-height="745"
     inkscape:window-x="-8"
     inkscape:window-y="-8"
     inkscape:window-maximized="1"
     units="px" />
  <metadata
     id="metadata9938">
    <rdf:RDF>
      <cc:Work
         rdf:about="">
        <dc:format>image/svg+xml</dc:format>
        <dc:type
           rdf:resource="http://purl.org/dc/dcmitype/StillImage" />
        <dc:title />
      </cc:Work>
    </rdf:RDF>
  </metadata>
  <g
     inkscape:label="Layer 1"
     inkscape:groupmode="layer"
     id="layer1"
     transform="translate(0,-692.36216)">
    <circle
       style="opacity:1;fill:#fff50c;fill-opacity:1;stroke:none;stroke-width:3;stroke-miterlimit:4;stroke-dasharray:none;stroke-opacity:1"
       id="circle4391"
       cx="173.69183"
       cy="872.93365"
       r="170" />
    <ellipse
       style="opacity:1;fill:#bb6f00;fill-opacity:1;stroke:none;stroke-width:3;stroke-miterlimit:4;stroke-dasharray:none;stroke-opacity:1"
       id="path4138-1"
       cx="233.69183"
       cy="851.07648"
       rx="34.285713"
       ry="40" />
    <ellipse
       cy="851.93359"
       cx="122.26325"
       id="circle4140-1"
       style="opacity:1;fill:#bb6f00;fill-opacity:1;stroke:none;stroke-width:3;stroke-miterlimit:4;stroke-dasharray:none;stroke-opacity:1"
       rx="34.285713"
       ry="40" />
    <g
       style="font-style:normal;font-weight:normal;font-size:40px;line-height:125%;font-family:sans-serif;letter-spacing:0px;word-spacing:0px;fill:#bb6f00;fill-opacity:1;stroke:none;stroke-width:1px;stroke-linecap:butt;stroke-linejoin:miter;stroke-opacity:1"
       id="flowRoot4434"
       transform="translate(966.26324,699.14282)">
      <path
         d="m -605.95508,118.38287 q 0,8.61328 -3.07617,15.38086 -3.07617,6.67969 -8.08594,11.86524 -4.92187,5.00976 -11.33789,9.40429 -6.41601,4.39454 -13.62304,8.52539 l 0,19.7754 -15.73243,0 0,-26.80665 q 5.71289,-3.25195 12.30469,-7.11914 6.67969,-3.86718 10.89844,-7.82226 5.09765,-4.57031 7.91015,-9.4043 2.8125,-4.92187 2.8125,-12.48047 0,-9.93164 -6.76757,-14.76562 -6.67969,-4.92188 -17.31446,-4.92188 -9.49218,0 -18.01757,2.98828 -8.4375,2.98829 -13.35938,6.06446 l -0.87891,0 0,-17.92969 q 6.15235,-2.373047 15.55664,-4.21875 9.49219,-1.933594 17.92969,-1.933594 18.89649,0 29.79492,9.228516 10.98633,9.140628 10.98633,24.169918 z m -34.71679,100.10743 -17.92969,0 0,-18.54493 17.92969,0 0,18.54493 z"
         style="font-size:180px;fill:#bb6f00;fill-opacity:1"
         id="path4443"
         inkscape:connector-curvature="0" />
    </g>
  </g>
</svg>
