<?xml version="1.0" encoding="UTF-8" standalone="no"?>
<!-- Created with Inkscape (http://www.inkscape.org/) -->

<svg
   xmlns:dc="http://purl.org/dc/elements/1.1/"
   xmlns:cc="http://creativecommons.org/ns#"
   xmlns:rdf="http://www.w3.org/1999/02/22-rdf-syntax-ns#"
   xmlns:svg="http://www.w3.org/2000/svg"
   xmlns="http://www.w3.org/2000/svg"
   xmlns:sodipodi="http://sodipodi.sourceforge.net/DTD/sodipodi-0.dtd"
   xmlns:inkscape="http://www.inkscape.org/namespaces/inkscape"
   width="360"
   height="360"
   viewBox="0 0 360 360.00001"
   id="svg8724"
   version="1.1"
   inkscape:version="0.91 r13725"
   sodipodi:docname="tired.svg"
   inkscape:export-filename="C:\Users\Ariel\Pictures\Vector Art\Emojis\tired.png"
   inkscape:export-xdpi="90.0989"
   inkscape:export-ydpi="90.0989">
  <defs
     id="defs8726" />
  <sodipodi:namedview
     id="base"
     pagecolor="#ffffff"
     bordercolor="#666666"
     borderopacity="1.0"
     inkscape:pageopacity="0.0"
     inkscape:pageshadow="2"
     inkscape:zoom="0.35"
     inkscape:cx="-954.86971"
     inkscape:cy="520"
     inkscape:document-units="px"
     inkscape:current-layer="layer1"
     showgrid="false"
     inkscape:window-width="1366"
     inkscape:window-height="745"
     inkscape:window-x="-8"
     inkscape:window-y="-8"
     inkscape:window-maximized="1"
     units="px" />
  <metadata
     id="metadata8729">
    <rdf:RDF>
      <cc:Work
         rdf:about="">
        <dc:format>image/svg+xml</dc:format>
        <dc:type
           rdf:resource="http://purl.org/dc/dcmitype/StillImage" />
        <dc:title />
      </cc:Work>
    </rdf:RDF>
  </metadata>
  <g
     inkscape:label="Layer 1"
     inkscape:groupmode="layer"
     id="layer1"
     transform="translate(0,-692.36216)">
    <g
       id="g4175">
      <circle
         r="170"
         cy="869.50507"
         cx="180"
         id="circle4254"
         style="opacity:1;fill:#fff63b;fill-opacity:1;stroke:none;stroke-width:3;stroke-miterlimit:4;stroke-dasharray:none;stroke-opacity:1" />
      <ellipse
         ry="40"
         rx="34.285713"
         style="opacity:1;fill:#bb6f00;fill-opacity:1;stroke:none;stroke-width:3;stroke-miterlimit:4;stroke-dasharray:none;stroke-opacity:1"
         id="circle4140-4"
         cx="179.22748"
         cy="955.19818" />
      <g
         id="flowRoot4327"
         style="font-style:normal;font-weight:normal;font-size:40px;line-height:125%;font-family:sans-serif;letter-spacing:0px;word-spacing:0px;fill:#80bdff;fill-opacity:1;stroke:none;stroke-width:1px;stroke-linecap:butt;stroke-linejoin:miter;stroke-opacity:1"
         transform="matrix(0.46536215,0,0,0.49646012,-322.69056,579.47731)">
        <path
           id="path4167"
           style="font-style:normal;font-variant:normal;font-weight:100;font-stretch:normal;font-size:180px;font-family:'AR CENA';-inkscape-font-specification:'AR CENA Thin';fill:#80bdff;fill-opacity:1"
           d="m 1061.6214,459.33494 q 13.14,0 18.18,2.7 5.22,2.7 5.22,8.64 0,3.06 -1.26,6.12 -1.26,2.88 -4.14,2.88 -4.32,0 -13.14,-0.72 -8.82,-0.72 -13.5,-0.72 -6.84,0 -20.16,1.26 -13.32,1.26 -19.8,1.26 -3.96,0 -6.48,-3.42 -2.52,-3.42 -2.52,-7.56 0,-6.66 12.06,-25.56 9,-14.04 24.84,-34.74 12.06,-15.84 19.98,-25.02 -4.32,0 -10.8,0.72 -14.58,1.62 -18.18,1.62 -6.3,0 -10.08,-2.34 -4.5,-2.88 -4.5,-8.82 0,-3.42 1.44,-6.3 1.62,-2.88 4.5,-4.14 3.06,0.36 6.66,0.9 3.78,0.36 6.12,0.36 6.66,0 24.48,-1.62 9.9,-0.9 14.76,-0.9 7.02,0 10.8,1.44 5.94,2.16 5.94,7.92 0,2.52 -1.44,5.58 -1.26,2.88 -14.4,19.62 -12.96,16.56 -26.1,33.12 -15.48,19.98 -20.7,28.62 6.84,0 18.36,-0.36 11.52,-0.54 13.86,-0.54 z" />
      </g>
      <g
         id="flowRoot4335"
         style="font-style:normal;font-weight:normal;font-size:40px;line-height:125%;font-family:sans-serif;letter-spacing:0px;word-spacing:0px;fill:#80bdff;fill-opacity:1;stroke:none;stroke-width:1px;stroke-linecap:butt;stroke-linejoin:miter;stroke-opacity:1"
         transform="matrix(0.73268108,0,0,0.69787607,-470.61388,504.17501)">
        <path
           id="path4173"
           style="font-style:normal;font-variant:normal;font-weight:100;font-stretch:normal;font-size:180px;font-family:'AR CENA';-inkscape-font-specification:'AR CENA Thin';fill:#80bdff;fill-opacity:1"
           d="m 1061.6214,459.33494 q 13.14,0 18.18,2.7 5.22,2.7 5.22,8.64 0,3.06 -1.26,6.12 -1.26,2.88 -4.14,2.88 -4.32,0 -13.14,-0.72 -8.82,-0.72 -13.5,-0.72 -6.84,0 -20.16,1.26 -13.32,1.26 -19.8,1.26 -3.96,0 -6.48,-3.42 -2.52,-3.42 -2.52,-7.56 0,-6.66 12.06,-25.56 9,-14.04 24.84,-34.74 12.06,-15.84 19.98,-25.02 -4.32,0 -10.8,0.72 -14.58,1.62 -18.18,1.62 -6.3,0 -10.08,-2.34 -4.5,-2.88 -4.5,-8.82 0,-3.42 1.44,-6.3 1.62,-2.88 4.5,-4.14 3.06,0.36 6.66,0.9 3.78,0.36 6.12,0.36 6.66,0 24.48,-1.62 9.9,-0.9 14.76,-0.9 7.02,0 10.8,1.44 5.94,2.16 5.94,7.92 0,2.52 -1.44,5.58 -1.26,2.88 -14.4,19.62 -12.96,16.56 -26.1,33.12 -15.48,19.98 -20.7,28.62 6.84,0 18.36,-0.36 11.52,-0.54 13.86,-0.54 z" />
      </g>
      <g
         id="flowRoot4343"
         style="font-style:normal;font-weight:normal;font-size:40px;line-height:125%;font-family:sans-serif;letter-spacing:0px;word-spacing:0px;fill:#80bdff;fill-opacity:1;stroke:none;stroke-width:1px;stroke-linecap:butt;stroke-linejoin:miter;stroke-opacity:1"
         transform="matrix(0.66585134,0,0,0.59716809,-468.10364,505.06147)">
        <path
           id="path4170"
           style="font-style:normal;font-variant:normal;font-weight:100;font-stretch:normal;font-size:180px;font-family:'AR CENA';-inkscape-font-specification:'AR CENA Thin';fill:#80bdff;fill-opacity:1"
           d="m 1061.6214,459.33494 q 13.14,0 18.18,2.7 5.22,2.7 5.22,8.64 0,3.06 -1.26,6.12 -1.26,2.88 -4.14,2.88 -4.32,0 -13.14,-0.72 -8.82,-0.72 -13.5,-0.72 -6.84,0 -20.16,1.26 -13.32,1.26 -19.8,1.26 -3.96,0 -6.48,-3.42 -2.52,-3.42 -2.52,-7.56 0,-6.66 12.06,-25.56 9,-14.04 24.84,-34.74 12.06,-15.84 19.98,-25.02 -4.32,0 -10.8,0.72 -14.58,1.62 -18.18,1.62 -6.3,0 -10.08,-2.34 -4.5,-2.88 -4.5,-8.82 0,-3.42 1.44,-6.3 1.62,-2.88 4.5,-4.14 3.06,0.36 6.66,0.9 3.78,0.36 6.12,0.36 6.66,0 24.48,-1.62 9.9,-0.9 14.76,-0.9 7.02,0 10.8,1.44 5.94,2.16 5.94,7.92 0,2.52 -1.44,5.58 -1.26,2.88 -14.4,19.62 -12.96,16.56 -26.1,33.12 -15.48,19.98 -20.7,28.62 6.84,0 18.36,-0.36 11.52,-0.54 13.86,-0.54 z" />
      </g>
      <path
         style="opacity:1;fill:#bb6f00;fill-opacity:1;stroke:none;stroke-width:3;stroke-miterlimit:4;stroke-dasharray:none;stroke-opacity:1"
         d="m 116.22289,920.90671 a 40,34.285713 87.150795 0 0 32.25643,-41.65488 40,34.285713 87.150795 0 0 -4.20013,-16.96649 40,34.285713 87.150795 0 1 -29.76053,24.37859 40,34.285713 87.150795 0 1 -32.031063,-21.28178 40,34.285713 87.150795 0 0 -2.49578,17.27823 40,34.285713 87.150795 0 0 36.231073,38.24633 z"
         id="path4351"
         inkscape:connector-curvature="0" />
      <path
         inkscape:connector-curvature="0"
         id="path4353"
         d="m 240.72748,918.03187 a 40,34.285713 86.729308 0 0 31.9491,-41.89103 40,34.285713 86.729308 0 0 -4.3248,-16.93514 40,34.285713 86.729308 0 1 -29.5804,24.59686 40,34.285713 86.729308 0 1 -32.18672,-21.04557 40,34.285713 86.729308 0 0 -2.3686,17.29612 40,34.285713 86.729308 0 0 36.51142,37.97876 z"
         style="opacity:1;fill:#bb6f00;fill-opacity:1;stroke:none;stroke-width:3;stroke-miterlimit:4;stroke-dasharray:none;stroke-opacity:1" />
    </g>
  </g>
</svg>
