<?xml version="1.0" encoding="UTF-8" standalone="no"?>
<!-- Created with Inkscape (http://www.inkscape.org/) -->

<svg
   xmlns:dc="http://purl.org/dc/elements/1.1/"
   xmlns:cc="http://creativecommons.org/ns#"
   xmlns:rdf="http://www.w3.org/1999/02/22-rdf-syntax-ns#"
   xmlns:svg="http://www.w3.org/2000/svg"
   xmlns="http://www.w3.org/2000/svg"
   xmlns:sodipodi="http://sodipodi.sourceforge.net/DTD/sodipodi-0.dtd"
   xmlns:inkscape="http://www.inkscape.org/namespaces/inkscape"
   width="360"
   height="360"
   viewBox="0 0 360 360.00001"
   id="svg6968"
   version="1.1"
   inkscape:version="0.91 r13725"
   sodipodi:docname="very sad.svg">
  <defs
     id="defs6970" />
  <sodipodi:namedview
     id="base"
     pagecolor="#ffffff"
     bordercolor="#666666"
     borderopacity="1.0"
     inkscape:pageopacity="0.0"
     inkscape:pageshadow="2"
     inkscape:zoom="0.35"
     inkscape:cx="-428.57143"
     inkscape:cy="520"
     inkscape:document-units="px"
     inkscape:current-layer="layer1"
     showgrid="false"
     inkscape:window-width="1366"
     inkscape:window-height="745"
     inkscape:window-x="-8"
     inkscape:window-y="-8"
     inkscape:window-maximized="1"
     units="px" />
  <metadata
     id="metadata6973">
    <rdf:RDF>
      <cc:Work
         rdf:about="">
        <dc:format>image/svg+xml</dc:format>
        <dc:type
           rdf:resource="http://purl.org/dc/dcmitype/StillImage" />
        <dc:title></dc:title>
      </cc:Work>
    </rdf:RDF>
  </metadata>
  <g
     inkscape:label="Layer 1"
     inkscape:groupmode="layer"
     id="layer1"
     transform="translate(0,-692.36216)">
    <g
       id="g4162"
       transform="translate(-0.2857143,6.285714)">
      <ellipse
         inkscape:export-ydpi="90.0989"
         inkscape:export-xdpi="90.0989"
         ry="40"
         rx="165.71428"
         cy="1005.2193"
         cx="180.85712"
         id="path4508"
         style="opacity:1;fill:#80bdff;fill-opacity:1;stroke:none;stroke-width:12;stroke-linecap:round;stroke-linejoin:round;stroke-miterlimit:4;stroke-dasharray:none;stroke-opacity:1" />
      <circle
         inkscape:export-ydpi="90.0989"
         inkscape:export-xdpi="90.0989"
         r="170"
         cy="860.93365"
         cx="180"
         id="circle4468"
         style="opacity:1;fill:#fff63b;fill-opacity:1;stroke:none;stroke-width:3;stroke-miterlimit:4;stroke-dasharray:none;stroke-opacity:1" />
      <path
         inkscape:export-ydpi="90.0989"
         inkscape:export-xdpi="90.0989"
         inkscape:connector-curvature="0"
         id="path4470"
         d="m 228.66752,958.03772 c -1.27049,-27.27118 -23.71465,-48.74868 -51.0153,-48.81813 -27.28655,-0.0206 -49.79498,21.36117 -51.17429,48.61283 0,0 34.0632,0.068 51.09479,0.1027 17.0316,0.034 51.0948,0.1026 51.0948,0.1026 z"
         style="opacity:1;fill:#bb6f00;fill-opacity:1;stroke:none;stroke-width:3;stroke-miterlimit:4;stroke-dasharray:none;stroke-opacity:1"
         sodipodi:nodetypes="ccczc" />
      <rect
         inkscape:export-ydpi="90.0989"
         inkscape:export-xdpi="90.0989"
         ry="0.19157124"
         y="856.07648"
         x="49.714264"
         height="165.71428"
         width="57.142857"
         id="rect4489"
         style="opacity:1;fill:#80bdff;fill-opacity:1;stroke:none;stroke-width:10;stroke-linecap:round;stroke-linejoin:round;stroke-miterlimit:4;stroke-dasharray:none;stroke-opacity:1" />
      <rect
         inkscape:export-ydpi="90.0989"
         inkscape:export-xdpi="90.0989"
         style="opacity:1;fill:#80bdff;fill-opacity:1;stroke:none;stroke-width:10;stroke-linecap:round;stroke-linejoin:round;stroke-miterlimit:4;stroke-dasharray:none;stroke-opacity:1"
         id="rect4491"
         width="54.285713"
         height="168.57143"
         x="253.42854"
         y="855.21936"
         ry="0.19487418" />
      <path
         inkscape:export-ydpi="90.0989"
         inkscape:export-xdpi="90.0989"
         inkscape:connector-curvature="0"
         id="path4504"
         d="M 42.442667,833.21098 126.47607,767.38483"
         style="fill:none;fill-rule:evenodd;stroke:#bb6f00;stroke-width:12;stroke-linecap:round;stroke-linejoin:miter;stroke-miterlimit:4;stroke-dasharray:none;stroke-opacity:1" />
      <path
         inkscape:export-ydpi="90.0989"
         inkscape:export-xdpi="90.0989"
         style="fill:none;fill-rule:evenodd;stroke:#bb6f00;stroke-width:12;stroke-linecap:round;stroke-linejoin:miter;stroke-miterlimit:4;stroke-dasharray:none;stroke-opacity:1"
         d="M 315.18156,832.58454 232.91172,768.13983"
         id="path4506"
         inkscape:connector-curvature="0" />
      <path
         inkscape:export-ydpi="90.0989"
         inkscape:export-xdpi="90.0989"
         style="opacity:1;fill:#bb6f00;fill-opacity:1;stroke:none;stroke-width:3;stroke-miterlimit:4;stroke-dasharray:none;stroke-opacity:1"
         d="m 163.79539,867.82337 c -2.07656,-19.9502 -28.88815,-35.37523 -60.94247,-35.06093 -32.036723,0.34984 -58.004583,16.30608 -59.039493,36.27746 0,0 39.993987,-11.51662 59.990973,-11.71938 19.997,-0.20275 59.99099,10.50285 59.99099,10.50285 z"
         id="path4213"
         inkscape:connector-curvature="0"
         sodipodi:nodetypes="ccczc" />
      <path
         inkscape:export-ydpi="90.0989"
         inkscape:export-xdpi="90.0989"
         sodipodi:nodetypes="ccczc"
         inkscape:connector-curvature="0"
         id="path4215"
         d="m 310.09169,865.97152 c -2.07656,-19.9502 -28.88815,-35.37523 -60.94246,-35.06093 -32.03673,0.34984 -58.00459,16.30608 -59.0395,36.27746 0,0 39.99399,-11.51662 59.99098,-11.71938 19.99699,-0.20275 59.99098,10.50285 59.99098,10.50285 z"
         style="opacity:1;fill:#bb6f00;fill-opacity:1;stroke:none;stroke-width:3;stroke-miterlimit:4;stroke-dasharray:none;stroke-opacity:1" />
    </g>
  </g>
</svg>
